sim/pipeline_waves.vcd
$date
   Tue Apr 14 04:01:57 2026
$end

$version
  2025.2
  $dumpfile ("pipeline_waves.vcd") 
$end

$timescale
  1ps
$end

$scope module tb_branch_prediction $end
$var reg 1 ! clk $end
$var reg 1 " reset $end
$var reg 1 # stall $end
$var reg 16 $ switch_in [15:0] $end
$var wire 1 % exception $end
$var wire 32 & pc_out [31:0] $end
$var wire 32 ' inst_mem_address [31:0] $end
$var wire 32 ( inst_mem_read_data [31:0] $end
$var wire 32 ) dmem_read_address [31:0] $end
$var wire 32 * dmem_read_data_temp [31:0] $end
$var wire 32 + dmem_write_address [31:0] $end
$var wire 32 , dmem_write_data [31:0] $end
$var wire 4 - dmem_write_byte [3:0] $end
$var wire 1 . dmem_read_ready $end
$var wire 1 / dmem_write_ready $end
$scope module dut $end
$var wire 1 0 clk $end
$var wire 1 1 reset $end
$var wire 1 2 stall $end
$var wire 1 % exception $end
$var wire 32 & pc_out [31:0] $end
$var wire 1 3 inst_mem_is_valid $end
$var wire 32 ( inst_mem_read_data [31:0] $end
$var wire 32 * dmem_read_data_temp [31:0] $end
$var wire 1 4 dmem_write_valid $end
$var wire 1 5 dmem_read_valid $end
$var wire 16 6 switch_in [15:0] $end
$var wire 32 ' inst_mem_address [31:0] $end
$var wire 1 . dmem_read_ready $end
$var wire 32 ) dmem_read_address [31:0] $end
$var wire 1 / dmem_write_ready $end
$var wire 32 + dmem_write_address [31:0] $end
$var wire 32 , dmem_write_data [31:0] $end
$var wire 4 - dmem_write_byte [3:0] $end
$var wire 32 7 dmem_read_data [31:0] $end
$var wire 2 8 dmem_read_offset [1:0] $end
$var wire 1 9 inst_mem_is_ready $end
$var wire 1 : dmem_read_valid_checker $end
$var reg 32 ; immediate [31:0] $end
$var wire 1 < immediate_sel $end
$var wire 5 = src1_select [4:0] $end
$var wire 5 > src2_select [4:0] $end
$var wire 5 ? dest_reg_sel [4:0] $end
$var wire 3 @ alu_operation [2:0] $end
$var wire 1 A arithsubtype $end
$var wire 1 B is_m_ext $end
$var wire 1 C mem_write $end
$var wire 1 D mem_to_reg $end
$var wire 1 E illegal_inst $end
$var wire 32 F execute_immediate [31:0] $end
$var wire 1 G alu $end
$var wire 1 H lui $end
$var wire 1 I jal $end
$var wire 1 J jalr $end
$var wire 1 K branch $end
$var reg 1 L stall_read $end
$var wire 32 M instruction [31:0] $end
$var wire 32 N reg_rdata2 [31:0] $end
$var wire 32 O reg_rdata1 [31:0] $end
$var wire 32 P pc [31:0] $end
$var wire 32 Q inst_fetch_pc [31:0] $end
$var reg 32 R fetch_pc [31:0] $end
$var wire 1 S wb_stall_first $end
$var wire 1 T wb_stall_second $end
$var wire 1 U wb_stall $end
$var wire 32 V next_pc [31:0] $end
$var wire 32 W write_address [31:0] $end
$var wire 1 X branch_taken $end
$var wire 1 Y branch_stall $end
$var wire 32 Z alu_operand1 [31:0] $end
$var wire 32 [ alu_operand2 [31:0] $end
$var wire 1 \ wb_alu_to_reg $end
$var wire 32 ] wb_result [31:0] $end
$var wire 3 ^ wb_alu_operation [2:0] $end
$var wire 1 _ wb_mem_write $end
$var wire 1 ` wb_mem_to_reg $end
$var wire 5 a wb_dest_reg_sel [4:0] $end
$var wire 1 b wb_branch $end
$var wire 1 c wb_branch_nxt $end
$var wire 32 d wb_write_address [31:0] $end
$var wire 2 e wb_read_address [1:0] $end
$var wire 4 f wb_write_byte [3:0] $end
$var wire 32 g wb_write_data [31:0] $end
$var wire 32 h wb_read_data [31:0] $end
$var wire 1 i predict_taken_w $end
$var wire 32 j predict_target_w [31:0] $end
$var wire 1 k branch_mispredicted $end
$var wire 1 l predict_taken $end
$var wire 32 m predict_target [31:0] $end
$var integer 32 n i [31:0] $end
$var wire 1 o flush $end
$scope module bp_unit $end
$var wire 1 0 clk $end
$var wire 1 1 reset $end
$var wire 32 p read_pc [31:0] $end
$var wire 1 l predict_taken $end
$var wire 32 m predict_target [31:0] $end
$var wire 1 K update_en $end
$var wire 32 P update_pc [31:0] $end
$var wire 1 X actual_taken $end
$var wire 32 V actual_target [31:0] $end
$var wire 6 q read_idx [5:0] $end
$var wire 6 r update_idx [5:0] $end
$var wire 2 s read_counter [1:0] $end
$var integer 32 t i [31:0] $end
$upscope $end
$scope module IF_ID_stage $end
$var wire 1 0 clk $end
$var wire 1 1 reset $end
$var wire 1 2 stall $end
$var reg 1 u exception $end
$var wire 1 3 inst_mem_is_valid $end
$var wire 32 ( inst_mem_read_data [31:0] $end
$var wire 1 v stall_read_i $end
$var wire 32 Q inst_fetch_pc [31:0] $end
$var wire 32 M instruction_i [31:0] $end
$var wire 1 U wb_stall $end
$var wire 1 \ wb_alu_to_reg $end
$var wire 1 ` wb_mem_to_reg $end
$var wire 5 a wb_dest_reg_sel [4:0] $end
$var wire 32 ] wb_result [31:0] $end
$var wire 32 h wb_read_data [31:0] $end
$var wire 1 k flush_i $end
$var wire 2 w inst_mem_offset [1:0] $end
$var wire 32 F execute_immediate_w [31:0] $end
$var wire 1 < immediate_sel_w $end
$var wire 1 G alu_w $end
$var wire 1 H lui_w $end
$var wire 1 I jal_w $end
$var wire 1 J jalr_w $end
$var wire 1 K branch_w $end
$var wire 1 C mem_write_w $end
$var wire 1 D mem_to_reg_w $end
$var wire 1 A arithsubtype_w $end
$var wire 1 B m_ext_w $end
$var wire 32 P pc_w [31:0] $end
$var wire 5 = src1_select_w [4:0] $end
$var wire 5 > src2_select_w [4:0] $end
$var wire 5 ? dest_reg_sel_w [4:0] $end
$var wire 3 @ alu_operation_w [2:0] $end
$var wire 1 E illegal_inst_w $end
$var wire 32 M instruction_o [31:0] $end
$var wire 1 l predict_taken_i $end
$var wire 32 m predict_target_i [31:0] $end
$var wire 1 i predict_taken_w $end
$var wire 32 j predict_target_w [31:0] $end
$var reg 32 x immediate [31:0] $end
$var reg 1 y illegal_inst $end
$scope module u_id_ex $end
$var wire 1 0 clk $end
$var wire 1 1 reset_n $end
$var wire 1 v stall_n $end
$var wire 32 z immediate_i [31:0] $end
$var wire 1 { immediate_sel_i $end
$var wire 1 | alu_i $end
$var wire 1 } lui_i $end
$var wire 1 ~ jal_i $end
$var wire 1 !! jalr_i $end
$var wire 1 "! branch_i $end
$var wire 1 #! mem_write_i $end
$var wire 1 $! mem_to_reg_i $end
$var wire 1 %! arithsubtype_i $end
$var wire 1 &! m_ext_i $end
$var wire 32 Q pc_i [31:0] $end
$var wire 5 '! src1_sel_i [19:15] $end
$var wire 5 (! src2_sel_i [24:20] $end
$var wire 5 )! dest_reg_sel_i [11:7] $end
$var wire 3 *! alu_op_i [14:12] $end
$var wire 1 +! illegal_inst_i $end
$var wire 1 l predict_taken_i $end
$var wire 32 m predict_target_i [31:0] $end
$var wire 1 k flush_i $end
$var reg 1 ,! predict_taken_o $end
$var reg 32 -! predict_target_o [31:0] $end
$var reg 32 .! execute_immediate_o [31:0] $end
$var reg 1 /! immediate_sel_o $end
$var reg 1 0! alu_o $end
$var reg 1 1! lui_o $end
$var reg 1 2! jal_o $end
$var reg 1 3! jalr_o $end
$var reg 1 4! branch_o $end
$var reg 1 5! mem_write_o $end
$var reg 1 6! mem_to_reg_o $end
$var reg 1 7! arithsubtype_o $end
$var reg 1 8! m_ext_o $end
$var reg 32 9! pc_o [31:0] $end
$var reg 5 :! src1_sel_o [4:0] $end
$var reg 5 ;! src2_sel_o [4:0] $end
$var reg 5 <! dest_reg_sel_o [4:0] $end
$var reg 3 =! alu_op_o [2:0] $end
$var reg 1 >! illegal_inst_o $end
$upscope $end
$upscope $end
$scope module execute $end
$var wire 1 0 clk $end
$var wire 1 1 reset $end
$var wire 32 O reg_rdata1 [31:0] $end
$var wire 32 N reg_rdata2 [31:0] $end
$var wire 32 F execute_imm [31:0] $end
$var wire 32 P pc [31:0] $end
$var wire 32 ?! fetch_pc [31:0] $end
$var wire 1 < immediate_sel $end
$var wire 1 C mem_write $end
$var wire 1 I jal $end
$var wire 1 J jalr $end
$var wire 1 H lui $end
$var wire 1 G alu $end
$var wire 1 K branch $end
$var wire 1 A arithsubtype $end
$var wire 1 B is_m_ext $end
$var wire 1 D mem_to_reg $end
$var wire 1 @! stall_read $end
$var wire 5 ? dest_reg_sel [4:0] $end
$var wire 3 @ alu_op [2:0] $end
$var wire 2 8 dmem_raddr [1:0] $end
$var wire 1 b wb_branch_i $end
$var wire 1 c wb_branch_nxt_i $end
$var wire 32 Z alu_operand1 [31:0] $end
$var wire 32 [ alu_operand2 [31:0] $end
$var wire 32 W write_address [31:0] $end
$var wire 1 Y branch_stall $end
$var reg 32 A! next_pc [31:0] $end
$var reg 1 B! branch_taken $end
$var wire 32 ] wb_result [31:0] $end
$var wire 1 _ wb_mem_write $end
$var wire 1 \ wb_alu_to_reg $end
$var wire 5 a wb_dest_reg_sel [4:0] $end
$var wire 1 b wb_branch $end
$var wire 1 c wb_branch_nxt $end
$var wire 1 ` wb_mem_to_reg $end
$var wire 2 e wb_read_address [1:0] $end
$var wire 3 ^ mem_alu_operation [2:0] $end
$var wire 1 i predict_taken_i $end
$var wire 32 j predict_target_i [31:0] $end
$var wire 1 k branch_mispredicted $end
$var reg 32 C! ex_result [31:0] $end
$var wire 33 D! ex_result_subs [32:0] $end
$var wire 33 E! ex_result_subu [32:0] $end
$var wire 64 F! alu1_signed [63:0] $end
$var wire 64 G! alu2_signed [63:0] $end
$var wire 64 H! alu1_unsigned [63:0] $end
$var wire 64 I! alu2_unsigned [63:0] $end
$var wire 64 J! mul_ss [63:0] $end
$var wire 64 K! mul_su [63:0] $end
$var wire 64 L! mul_uu [63:0] $end
$scope module u_ex_mem_wb $end
$var wire 1 0 clk $end
$var wire 1 1 reset_n $end
$var wire 1 @! stall_n $end
$var wire 32 M! ex_result [31:0] $end
$var wire 1 N! mem_write $end
$var wire 1 O! alu_to_reg $end
$var wire 5 ? dest_reg_sel [4:0] $end
$var wire 1 B! branch_taken $end
$var wire 1 D mem_to_reg $end
$var wire 2 8 read_address [1:0] $end
$var wire 3 @ alu_operation [2:0] $end
$var reg 32 P! ex_mem_result [31:0] $end
$var reg 1 Q! ex_mem_mem_write $end
$var reg 1 R! ex_mem_alu_to_reg $end
$var reg 5 S! ex_mem_dest_reg_sel [4:0] $end
$var reg 1 T! ex_mem_branch $end
$var reg 1 U! ex_mem_branch_nxt $end
$var reg 1 V! ex_mem_mem_to_reg $end
$var reg 2 W! ex_mem_read_address [1:0] $end
$var reg 3 X! ex_mem_alu_operation [2:0] $end
$upscope $end
$upscope $end
$scope module wb_stage $end
$var wire 1 0 clk $end
$var wire 1 1 reset $end
$var wire 1 Y! stall_read_i $end
$var wire 32 Z! fetch_pc_i [31:0] $end
$var wire 1 b wb_branch_i $end
$var wire 1 ` wb_mem_to_reg_i $end
$var wire 1 C mem_write_i $end
$var wire 32 W write_address_i [31:0] $end
$var wire 32 [ alu_operand2_i [31:0] $end
$var wire 3 @ alu_operation_i [2:0] $end
$var wire 3 ^ wb_alu_operation_i [2:0] $end
$var wire 2 e wb_read_address_i [1:0] $end
$var wire 32 * dmem_read_data_i [31:0] $end
$var wire 1 4 dmem_write_valid_i $end
$var wire 32 ' inst_mem_address_o [31:0] $end
$var wire 1 9 inst_mem_is_ready_o $end
$var wire 1 U wb_stall_o $end
$var reg 32 [! wb_write_address_o [31:0] $end
$var reg 32 \! wb_write_data_o [31:0] $end
$var reg 4 ]! wb_write_byte_o [3:0] $end
$var reg 32 ^! wb_read_data_o [31:0] $end
$var reg 32 _! inst_fetch_pc_o [31:0] $end
$var reg 1 `! wb_stall_first_o $end
$var reg 1 a! wb_stall_second_o $end
$upscope $end
$upscope $end
$scope module imem_inst $end
$var wire 1 b! clk $end
$var wire 32 ' pc [31:0] $end
$var reg 32 c! instr [31:0] $end
$upscope $end
$scope module dmem_inst $end
$var wire 1 d! clk $end
$var wire 1 . re $end
$var wire 32 ) raddr [31:0] $end
$var reg 32 e! rdata [31:0] $end
$var wire 1 / we $end
$var wire 32 + waddr [31:0] $end
$var wire 32 , wdata [31:0] $end
$var wire 4 - wstrb [3:0] $end
$var wire 10 f! rindex [9:0] $end
$var wire 10 g! windex [9:0] $end
$upscope $end
$upscope $end
$enddefinitions $end

#0
$dumpvars
0!
0!!
0"
0"!
0#
0#!
b0 $
0$!
0%
0%!
b0 &
0&!
b0 '
b0 '!
bx (
b0 (!
b0 )
b0 )!
bx *
b0 *!
b0 +
0+!
b0 ,
0,!
b0 -
b0 -!
0.
b0 .!
0/
0/!
00
00!
01
01!
02
02!
13
03!
14
04!
15
05!
b0 6
06!
bz 7
07!
b0 8
08!
09
b0 9!
1:
b0 :!
bx ;
b0 ;!
0<
b0 <!
b0 =
b0 =!
b0 >
0>!
b0 ?
b0 ?!
b0 @
1@!
0A
b100 A!
0B
0B!
0C
bx C!
0D
b0 D!
0E
b0 E!
b0 F
b0 F!
0G
b0 G!
0H
b0 H!
0I
b0 I!
0J
b0 J!
0K
b0 K!
1L
b0 L!
b10011 M
bx M!
b0 N
0N!
b0 O
0O!
b0 P
b0 P!
b0 Q
0Q!
b0 R
0R!
0S
b0 S!
0T
0T!
0U
0U!
b100 V
0V!
b0 W
b0 W!
0X
b0 X!
0Y
1Y!
b0 Z
b0 Z!
b0 [
b0 [!
0\
b0 \!
b0 ]
b0 ]!
b0 ^
bx ^!
0_
b0 _!
0`
0`!
b0 a
0a!
0b
0b!
0c
bx c!
b0 d
0d!
b0 e
bx e!
b0 f
b0 f!
b0 g
b0 g!
bx h
0i
b0 j
0k
0l
b0 m
bx n
0o
b0 p
b0 q
b0 r
b0 s
bx t
0u
1v
b0 w
b0 x
0y
b0 z
1{
1|
0}
0~
$end

#5000
1!
b11111100000000010000000100010011 (
10
1b!
b11111100000000010000000100010011 c!
1d!

#10000
0!
00
0b!
0d!

#15000
1!
10
1b!
1d!

#20000
0!
1"
00
11
0b!
0d!

#25000
1!
b10 '!
b0 (!
b10 )!
b0 *!
10
19
0@!
0L
b11111100000000010000000100010011 M
0Y!
1b!
1d!
0v
b11111111111111111111111111000000 x
b11111111111111111111111111000000 z

#30000
0!
00
0b!
0d!

#35000
1!
b100 &
b100 '
b11111111111111111111111111000000 )
b11111111111111111111111111000000 .!
1/!
10
10!
b10 :!
1<
b10 <!
b10 =
b10 ?
b100 ?!
b1000 A!
0B!
b11111111111111111111111111000000 C!
b1000000 D!
b100000000000000000000000001000000 E!
b11111111111111111111111111000000 F
1G
b1111111111111111111111111111111111111111111111111111111111000000 G!
b11111111111111111111111111000000 I!
b11111111111111111111111111000000 M!
1O!
bx P!
b100 R
b1000 V
b11111111111111111111111111000000 W
b100 Z!
b11111111111111111111111111000000 [
bx ]
1b!
1d!
b1111110000 f!
b100 p
b1 q
b0 w

#40000
0!
00
0b!
0d!

#45000
1!
1#!
b1000 &
b1000 '
b10 '!
b10000100010010111000100011 (
b1 (!
b11111111111111111111111110000000 )
b11100 )!
b10 *!
10
b1000 ?!
b1100 A!
0B!
b11111111111111111111111110000000 C!
b0 D!
b0 E!
b1111111111111111111111111111111111111111111111111111111111000000 F!
b11111111111111111111111111000000 H!
b1000000000000 J!
b1111111111111111111111111100000000000000000000000001000000000000 K!
b1111111111111111111111111000000000000000000000000001000000000000 L!
b10000100010010111000100011 M
b11111111111111111111111110000000 M!
b11111111111111111111111111000000 O
b11111111111111111111111111000000 P!
b100 Q
b1000 R
1R!
b10 S!
b1100 V
b11111111111111111111111110000000 W
b11111111111111111111111111000000 Z
b1000 Z!
1\
b11111111111111111111111111000000 ]
b100 _!
b10 a
1b!
b10000100010010111000100011 c!
1d!
b1111100000 f!
b1000 p
b10 q
b0 w
b111100 x
b111100 z
0{
0|

#50000
0!
00
0b!
0d!

#55000
1!
b1100 &
b1100 '
b10 '!
b10100000010010110000100011 (
b1000 (!
b11111111111111111111111110111100 )
b11000 )!
b10 *!
b111100 .!
0/!
10
00!
15!
b100 9!
b1 ;!
0<
b11100 <!
b10 =!
b1 >
b11100 ?
b1100 ?!
b10 @
b10000 A!
0B!
1C
b0 C!
b111111111111111111111111110000000 D!
b11111111111111111111111110000000 E!
b111100 F
b1111111111111111111111111111111111111111111111111111111110000000 F!
0G
b0 G!
b11111111111111111111111110000000 H!
b0 I!
b0 J!
b0 K!
b0 L!
b10100000010010110000100011 M
b0 M!
1N!
b11111111111111111111111110000000 O
0O!
b100 P
b11111111111111111111111110000000 P!
b1000 Q
b1100 R
b10000 V
b11111111111111111111111110111100 W
b11111111111111111111111110000000 Z
b1100 Z!
b0 [
b11111111111111111111111110000000 ]
b1000 _!
1b!
b10100000010010110000100011 c!
1d!
b1111101111 f!
b1100 p
b11 q
b1 r
b0 w
b111000 x
b111000 z

#60000
0!
00
0b!
0d!

#65000
1!
0#!
b10000 &
b10000 '
b10 '!
b100000000010000010000010011 (
b0 (!
b11111111111111111111111110111000 )
b1000 )!
b0 *!
b11111111111111111111111110111100 +
b1111 -
b111000 .!
1/
10
b1000 9!
b1000 ;!
b11000 <!
b1000 >
b11000 ?
b10000 ?!
b10100 A!
0B!
b111000 F
b100000000010000010000010011 M
b1000 P
b0 P!
b1100 Q
1Q!
b10000 R
0R!
b11100 S!
b10100 V
b11111111111111111111111110111000 W
b10 X!
b10000 Z!
b11111111111111111111111110111100 [!
0\
b0 ]
b1111 ]!
b10 ^
1_
b1100 _!
b11100 a
1b!
b100000000010000010000010011 c!
b11111111111111111111111110111100 d
1d!
b1111 f
b1111101110 f!
b1111101111 g!
b10000 p
b100 q
b10 r
b0 w
b1000000 x
b1000000 z
1{
1|

#70000
0!
00
0b!
0d!

#75000
1!
1#!
1%!
b10100 &
b10100 '
b1000 '!
b11111110000001000010010000100011 (
b0 (!
b11111111111111111111111111000000 )
b1000 )!
b10 *!
b11111111111111111111111110111000 +
b1000000 .!
1/!
10
10!
05!
b1100 9!
b0 ;!
1<
b1000 <!
b0 =!
b0 >
b1000 ?
b10100 ?!
b0 @
b11000 A!
0B!
0C
b11111111111111111111111111000000 C!
b111111111111111111111111101000000 D!
b11111111111111111111111101000000 E!
b1000000 F
1G
b1000000 G!
b1000000 I!
b1111111111111111111111111111111111111111111111111110000000000000 J!
b1111111111111111111111111111111111111111111111111110000000000000 K!
b11111111111111111111111110000000000000 L!
b11111110000001000010010000100011 M
b11111111111111111111111111000000 M!
0N!
1O!
b1100 P
b10000 Q
b10100 R
b11000 S!
b11000 V
b11111111111111111111111111000000 W
b10100 Z!
b1000000 [
b11111111111111111111111110111000 [!
b10000 _!
b11000 a
1b!
b11111110000001000010010000100011 c!
b11111111111111111111111110111000 d
1d!
b1111110000 f!
b1111101110 g!
b10100 p
b101 q
b11 r
b0 w
b11111111111111111111111111101000 x
b11111111111111111111111111101000 z
0{
0|

#80000
0!
00
0b!
0d!

#85000
1!
b11000 &
b11000 '
b1000 '!
b11111110000001000010011000100011 (
b0 (!
b11111111111111111111111110101000 )
b1100 )!
b10 *!
b11111111111111111111111111101000 .!
0/
0/!
10
00!
15!
17!
b10000 9!
b1000 :!
0<
b1000 =
b10 =!
b11000 ?!
b10 @
1A
b11100 A!
0B!
1C
b0 C!
b111111111111111111111111111000000 D!
b11111111111111111111111111000000 E!
b11111111111111111111111111101000 F
b1111111111111111111111111111111111111111111111111111111111000000 F!
0G
b0 G!
b11111111111111111111111111000000 H!
b0 I!
b0 J!
b0 K!
b0 L!
b11111110000001000010011000100011 M
b0 M!
1N!
b11111111111111111111111111000000 O
0O!
b10000 P
b11111111111111111111111111000000 P!
b10100 Q
0Q!
b11000 R
1R!
b1000 S!
b11100 V
b11111111111111111111111110101000 W
b0 X!
b11111111111111111111111111000000 Z
b11000 Z!
b0 [
1\
b11111111111111111111111111000000 ]
b0 ^
0_
b10100 _!
b1000 a
1b!
b11111110000001000010011000100011 c!
1d!
b1111101010 f!
b11000 p
b110 q
b100 r
b0 w
b11111111111111111111111111101100 x
b11111111111111111111111111101100 z

#90000
0!
00
0b!
0d!

#95000
1!
0#!
0%!
b11100 &
b11100 '
b0 '!
b11100000000000000001101111 (
b11000 (!
b11111111111111111111111110101100 )
b0 )!
b0 *!
b11111111111111111111111110101000 +
b11111111111111111111111111101100 .!
1/
10
b10100 9!
b1100 <!
b1100 ?
b11100 ?!
b100000 A!
0B!
b11111111111111111111111111101100 F
b11100000000000000001101111 M
b10100 P
b0 P!
b11000 Q
1Q!
b11100 R
0R!
b100000 V
b11111111111111111111111110101100 W
b10 X!
b11100 Z!
b11111111111111111111111110101000 [!
0\
b0 ]
b10 ^
1_
b11000 _!
1b!
b11100000000000000001101111 c!
b11111111111111111111111110101000 d
1d!
b1111101011 f!
b1111101010 g!
b11100 p
b111 q
b101 r
b0 w
b111000 x
b111000 z
1~

#100000
0!
00
0b!
0d!

#105000
1!
1$!
1%!
b100000 &
b100000 '
b1000 '!
b11111110110001000010011100000011 (
b1100 (!
b111000 )
b1110 )!
b10 *!
b11111111111111111111111110101100 +
b111000 .!
10
12!
05!
07!
b11000 9!
b0 :!
b11000 ;!
b0 <!
b0 =
b0 =!
b11000 >
b0 ?
b100000 ?!
b0 @
0A
b1010000 A!
1B!
0C
b11100 C!
b0 D!
b0 E!
b111000 F
b0 F!
b0 H!
1I
b11111110110001000010011100000011 M
b11100 M!
0N!
b0 O
1O!
b11000 P
b11100 Q
b100000 R
b1100 S!
b1010000 V
b111000 W
1X
b0 Z
b100000 Z!
b11111111111111111111111110101100 [!
b11100 _!
b1100 a
1b!
b11111110110001000010011100000011 c!
b11111111111111111111111110101100 d
1d!
b1110 f!
b1111101011 g!
b100000 p
b1000 q
b110 r
b0 w
b11111111111111111111111111101100 x
b11111111111111111111111111101100 z
1{
0~

#110000
0!
00
0b!
0d!

#115000
1!
0$!
0%!
b100100 &
b100100 '
b1000 '!
b11111100000001000000011110010011 (
b0 (!
b11111111111111111111111110101100 )
b1111 )!
b0 *!
1.
b11111111111111111111111111101100 .!
0/
1/!
10
02!
16!
17!
b11100 9!
b1000 :!
b1100 ;!
1<
b1110 <!
b1000 =
b10 =!
b1100 >
b1110 ?
b100100 ?!
b10 @
1A
b101000 A!
0B!
bx C!
1D
b111111111111111111111111111010100 D!
b111111111111111111111111111010100 E!
b11111111111111111111111111101100 F
b1111111111111111111111111111111111111111111111111111111111000000 F!
b1111111111111111111111111111111111111111111111111111111111101100 G!
b11111111111111111111111111000000 H!
0I
b11111111111111111111111111101100 I!
b10100000000 J!
b1111111111111111111111111100000000000000000000000000010100000000 K!
b1111111111111111111111111010110000000000000000000000010100000000 L!
b11111100000001000000011110010011 M
bx M!
b11111111111111111111111111000000 O
b11100 P
b11100 P!
b100000 Q
0Q!
b100100 R
1R!
b0 S!
1T!
b101000 V
b11111111111111111111111110101100 W
0X
b0 X!
b11111111111111111111111111000000 Z
b100100 Z!
b11111111111111111111111111101100 [
1\
b11100 ]
b0 ^
0_
b100000 _!
b0 a
1b
1b!
b11111100000001000000011110010011 c!
1d!
b1111101011 f!
b100100 p
b1001 q
b111 r
b0 w
b11111111111111111111111111000000 x
b11111111111111111111111111000000 z
1|

#120000
0!
00
0b!
0d!

#125000
1!
b101000 &
b101000 '
b1110 '!
b1001110001011100010011 (
b10 (!
b11111111111111111111111110000000 )
b1110 )!
b0 *
b1 *!
0.
b11111111111111111111111111000000 .!
10
10!
06!
07!
b100000 9!
b0 ;!
b1111 <!
b0 =!
b0 >
b1111 ?
b101000 ?!
b0 @
0A
b101100 A!
0B!
b11111111111111111111111110000000 C!
0D
b0 D!
b0 E!
b11111111111111111111111111000000 F
1G
b1111111111111111111111111111111111111111111111111111111111000000 G!
b11111111111111111111111111000000 I!
b1000000000000 J!
b1111111111111111111111111100000000000000000000000001000000000000 K!
b1111111111111111111111111000000000000000000000000001000000000000 L!
b1001110001011100010011 M
b11111111111111111111111110000000 M!
b100000 P
bx P!
b100100 Q
b101000 R
b1110 S!
0T!
1U!
b101100 V
1V!
b11111111111111111111111110000000 W
b10 X!
b101000 Z!
b11111111111111111111111111000000 [
bx ]
b10 ^
b0 ^!
b100100 _!
1`
b1110 a
0b
1b!
1c
b1001110001011100010011 c!
1d!
b0 e!
b1111100000 f!
b0 h
b101000 p
b1010 q
b1000 r
b0 w
b10 x
b10 z

#130000
0!
00
0b!
0d!

#135000
1!
b101100 &
b101100 '
b1110 '!
b111101110000011110110011 (
b1111 (!
b10 )
b1111 )!
b0 *!
b10 .!
10
b10 8
b100100 9!
b1110 :!
b10 ;!
b1110 <!
b1110 =
b1 =!
b10 >
b1110 ?
b101100 ?!
b1 @
b110000 A!
0B!
b0 C!
b111111111111111111111111111111110 D!
b111111111111111111111111111111110 E!
b10 F
b0 F!
b10 G!
b0 H!
b10 I!
b0 J!
b0 K!
b0 L!
b111101110000011110110011 M
b0 M!
b11111111111111111111111110000000 N
b0 O
b100100 P
b11111111111111111111111110000000 P!
b101000 Q
b101100 R
b1111 S!
0U!
b110000 V
0V!
b10 W
b0 X!
b0 Z
b101100 Z!
b10 [
b11111111111111111111111110000000 ]
b0 ^
b101000 _!
0`
b1111 a
1b!
0c
b111101110000011110110011 c!
1d!
b0 f!
b101100 p
b1011 q
b1001 r
b0 w
b0 x
b0 z
0{

#140000
0!
00
0b!
0d!

#145000
1!
1$!
1%!
b110000 &
b110000 '
b1000 '!
b11111110110001000010011100000011 (
b1100 (!
b0 )
b1110 )!
b10 *!
b0 .!
0/!
10
b0 8
b101000 9!
b1111 ;!
0<
b1111 <!
b0 =!
b1111 >
b1111 ?
b110000 ?!
b0 @
b110100 A!
0B!
b11111111111111111111111110000000 C!
b10000000 D!
b100000000000000000000000010000000 E!
b0 F
b1111111111111111111111111111111111111111111111111111111110000000 G!
b11111111111111111111111110000000 I!
b11111110110001000010011100000011 M
b11111111111111111111111110000000 M!
b101000 P
b0 P!
b101100 Q
b110000 R
b1110 S!
b110100 V
b0 W
b10 W!
b1 X!
b110000 Z!
b11111111111111111111111110000000 [
b0 ]
b1 ^
b101100 _!
b1110 a
1b!
b11111110110001000010011100000011 c!
1d!
b10 e
b110000 p
b1100 q
b1010 r
b0 w
b11111111111111111111111111101100 x
b11111111111111111111111111101100 z
1{
0|

#150000
0!
00
0b!
0d!

#155000
1!
1#!
0$!
0%!
b110100 &
b110100 '
b1111 '!
b111001111010000000100011 (
b1110 (!
b11111111111111111111111110101100 )
b0 )!
b10 *!
1.
b11111111111111111111111111101100 .!
1/!
10
00!
16!
17!
b101100 9!
b1000 :!
b1100 ;!
1<
b1110 <!
b1000 =
b10 =!
b1100 >
b1110 ?
b110100 ?!
b10 @
1A
b111000 A!
0B!
bx C!
1D
b111111111111111111111111111010100 D!
b111111111111111111111111111010100 E!
b11111111111111111111111111101100 F
b1111111111111111111111111111111111111111111111111111111111000000 F!
0G
b1111111111111111111111111111111111111111111111111111111111101100 G!
b11111111111111111111111111000000 H!
b11111111111111111111111111101100 I!
b10100000000 J!
b1111111111111111111111111100000000000000000000000000010100000000 K!
b1111111111111111111111111010110000000000000000000000010100000000 L!
b111001111010000000100011 M
bx M!
b0 N
b11111111111111111111111111000000 O
b101100 P
b11111111111111111111111110000000 P!
b110000 Q
b110100 R
b1111 S!
b111000 V
b11111111111111111111111110101100 W
b0 W!
b0 X!
b11111111111111111111111111000000 Z
b110100 Z!
b11111111111111111111111111101100 [
b11111111111111111111111110000000 ]
b0 ^
b110000 _!
b1111 a
1b!
b111001111010000000100011 c!
1d!
b0 e
b1111101011 f!
b110100 p
b1101 q
b1011 r
b0 w
b0 x
b0 z
0{

#160000
0!
00
0b!
0d!

#165000
1!
0#!
1$!
1%!
b111000 &
b111000 '
b1000 '!
b11111110100001000010011100000011 (
b1000 (!
b11111111111111111111111110000000 )
b1110 )!
b10 *!
0.
b0 .!
0/!
10
15!
06!
07!
b110000 9!
b1111 :!
b1110 ;!
0<
b0 <!
b1111 =
b1110 >
b0 ?
b111000 ?!
0A
b111100 A!
0B!
1C
b0 C!
0D
b111111111111111111111111110000000 D!
b11111111111111111111111110000000 E!
b0 F
b1111111111111111111111111111111111111111111111111111111110000000 F!
b0 G!
b11111111111111111111111110000000 H!
b0 I!
b0 J!
b0 K!
b0 L!
b11111110100001000010011100000011 M
b0 M!
1N!
b11111111111111111111111110000000 O
0O!
b110000 P
bx P!
b110100 Q
b111000 R
b1110 S!
b111100 V
1V!
b11111111111111111111111110000000 W
b10 X!
b11111111111111111111111110000000 Z
b111000 Z!
b0 [
bx ]
b10 ^
b110100 _!
1`
b1110 a
1b!
b11111110100001000010011100000011 c!
1d!
b1111100000 f!
b111000 p
b1110 q
b1100 r
b0 w
b11111111111111111111111111101000 x
b11111111111111111111111111101000 z
1{

#170000
0!
00
0b!
0d!

